2363
.T
Minimal Spanning Tree [H] (Algorithm A422)
.B
CACM April, 1972
.A
Whitney, V. K. M.
.K
spanning tree, minimal spanning tree, maximal spanning tree
.C
5.32
.N
CA720410 JB January 31, 1978  12:36 PM
