2385
.T
Zeros of a Complex Polynomial [C2] (Algorithm A419)
.B
CACM February, 1972
.A
Jenkins, M. A.
Traub, J. F.
.K
roots, roots of a polynomial, zeros of a polynomial
.C
5.15
.N
CA720206 JB January 31, 1978  4:14 PM
