2430
.T
The Elementary Circuits of a Graph [H] (Algorithm A459)
.B
CACM October, 1973
.A
Syslo,M. M.
.K
algorithm, graph theory, circuit search
algorithm, path search algorithm, searching
.C
3.74 4.22 5.32
.N
CA731010 JB January 20, 1978  11:11 AM
