2468
.T
Rosenbrock Function Minimization [E4] (Algorithm A450)
.B
CACM August, 1973
.A
Machura, M.
Mulawa, A.
.K
function minimization, Rosenbrock's method
.C
5.19
.N
CA730806 JB January 23, 1978  10:43 AM
